tests/tb_DIV/wave.vcd
$version Generated by VerilatedVcd $end
$timescale 1ps $end
 $scope module $rootio $end
 $upscope $end
 $scope module TB_DIVIDER $end
  $var wire 32 5 nume [31:0] $end
  $var wire 32 6 den [31:0] $end
  $var wire 1 7 en $end
  $var wire 1 + done $end
  $var wire 1 8 clk $end
  $var wire 1 9 test $end
  $var wire 32 , quotient [31:0] $end
  $var wire 32 - remainder [31:0] $end
  $var wire 1 : clr $end
  $var wire 1 . error $end
  $var wire 1 / busy $end
  $scope module DUT $end
   $var wire 32 5 nume [31:0] $end
   $var wire 32 6 den [31:0] $end
   $var wire 1 7 en $end
   $var wire 1 8 clk $end
   $var wire 1 : clr $end
   $var wire 32 , quotient [31:0] $end
   $var wire 32 - remainder [31:0] $end
   $var wire 1 + done $end
   $var wire 1 / busy $end
   $var wire 1 . error $end
   $var wire 64 0 DEN [63:0] $end
   $var wire 64 # NEXT_DEN [63:0] $end
   $var wire 64 % NEXT_NUME [63:0] $end
   $var wire 64 2 NUME [63:0] $end
   $var wire 32 ' NEXT_q [31:0] $end
   $var wire 32 , current_q [31:0] $end
   $var wire 6 ( NEXT_counter [5:0] $end
   $var wire 6 4 counter [5:0] $end
   $var wire 1 ) NEXT_done $end
   $var wire 1 + current_done $end
   $var wire 1 ; check $end
   $var wire 1 < running $end
   $var wire 1 * NEXT_ERROR $end
  $upscope $end
 $upscope $end
$enddefinitions $end


#0
b0000000000000000000000000000000011111111111111111111111111111111 #
b0000000000000000000000000000000011111111111111111111111111111111 %
b00000000000000000000000000000000 '
b000000 (
1)
1*
0+
b00000000000000000000000000000000 ,
b00000000000000000000000000000000 -
0.
1/
b0000000000000000000000000000000000000000000000000000000000000000 0
b0000000000000000000000000000000000000000000000000000000000000000 2
b000000 4
b00000000000000000000000000000000 5
b00000000000000000000000000000000 6
07
08
19
0:
0;
0<
#10000
b0000000000000000000000000000000000000000000000000000000000000000 #
b0000000000000000000000000000000000000000000000000000000000000000 %
0*
1+
b11111111111111111111111111111111 -
1.
0/
b0000000000000000000000000000000011111111111111111111111111111111 0
b0000000000000000000000000000000011111111111111111111111111111111 2
18
#20000
08
#30000
b00000000000000000000000000000000 -
0.
b0000000000000000000000000000000000000000000000000000000000000000 0
b0000000000000000000000000000000000000000000000000000000000000000 2
18
09
#40000
08
#50000
18
#60000
08
#70000
b00000000000000000000000001100100 5
18
#80000
08
#90000
b00000000000000000000000000001010 6
18
#100000
08
#110000
b0000000000000000000000000000010100000000000000000000000000000000 #
b0000000000000000000000000000000000000000000000000000000001100100 %
b000001 (
0)
0+
b00000000000000000000000001100100 -
1/
b0000000000000000000000000000101000000000000000000000000000000000 0
b0000000000000000000000000000000000000000000000000000000001100100 2
17
18
#120000
08
#130000
b0000000000000000000000000000001010000000000000000000000000000000 #
b000010 (
b0000000000000000000000000000010100000000000000000000000000000000 0
b000001 4
07
18
#140000
08
#150000
b0000000000000000000000000000000101000000000000000000000000000000 #
b000011 (
b0000000000000000000000000000001010000000000000000000000000000000 0
b000010 4
18
#160000
08
#170000
b0000000000000000000000000000000010100000000000000000000000000000 #
b000100 (
b0000000000000000000000000000000101000000000000000000000000000000 0
b000011 4
18
#180000
08
#190000
b0000000000000000000000000000000001010000000000000000000000000000 #
b000101 (
b0000000000000000000000000000000010100000000000000000000000000000 0
b000100 4
18
#200000
08
#210000
b0000000000000000000000000000000000101000000000000000000000000000 #
b000110 (
b0000000000000000000000000000000001010000000000000000000000000000 0
b000101 4
18
#220000
08
#230000
b0000000000000000000000000000000000010100000000000000000000000000 #
b000111 (
b0000000000000000000000000000000000101000000000000000000000000000 0
b000110 4
18
#240000
08
#250000
b0000000000000000000000000000000000001010000000000000000000000000 #
b001000 (
b0000000000000000000000000000000000010100000000000000000000000000 0
b000111 4
18
#260000
08
#270000
b0000000000000000000000000000000000000101000000000000000000000000 #
b001001 (
b0000000000000000000000000000000000001010000000000000000000000000 0
b001000 4
18
#280000
08
#290000
b0000000000000000000000000000000000000010100000000000000000000000 #
b001010 (
b0000000000000000000000000000000000000101000000000000000000000000 0
b001001 4
18
#300000
08
#310000
b0000000000000000000000000000000000000001010000000000000000000000 #
b001011 (
b0000000000000000000000000000000000000010100000000000000000000000 0
b001010 4
18
#320000
08
#330000
b0000000000000000000000000000000000000000101000000000000000000000 #
b001100 (
b0000000000000000000000000000000000000001010000000000000000000000 0
b001011 4
18
#340000
08
#350000
b0000000000000000000000000000000000000000010100000000000000000000 #
b001101 (
b0000000000000000000000000000000000000000101000000000000000000000 0
b001100 4
18
#360000
08
#370000
b0000000000000000000000000000000000000000001010000000000000000000 #
b001110 (
b0000000000000000000000000000000000000000010100000000000000000000 0
b001101 4
18
#380000
08
#390000
b0000000000000000000000000000000000000000000101000000000000000000 #
b001111 (
b0000000000000000000000000000000000000000001010000000000000000000 0
b001110 4
18
#400000
08
#410000
b0000000000000000000000000000000000000000000010100000000000000000 #
b010000 (
b0000000000000000000000000000000000000000000101000000000000000000 0
b001111 4
18
#420000
08
#430000
b0000000000000000000000000000000000000000000001010000000000000000 #
b010001 (
b0000000000000000000000000000000000000000000010100000000000000000 0
b010000 4
18
#440000
08
#450000
b0000000000000000000000000000000000000000000000101000000000000000 #
b010010 (
b0000000000000000000000000000000000000000000001010000000000000000 0
b010001 4
18
#460000
08
#470000
b0000000000000000000000000000000000000000000000010100000000000000 #
b010011 (
b0000000000000000000000000000000000000000000000101000000000000000 0
b010010 4
18
#480000
08
#490000
b0000000000000000000000000000000000000000000000001010000000000000 #
b010100 (
b0000000000000000000000000000000000000000000000010100000000000000 0
b010011 4
18
#500000
08
#510000
b0000000000000000000000000000000000000000000000000101000000000000 #
b010101 (
b0000000000000000000000000000000000000000000000001010000000000000 0
b010100 4
18
#520000
08
#530000
b0000000000000000000000000000000000000000000000000010100000000000 #
b010110 (
b0000000000000000000000000000000000000000000000000101000000000000 0
b010101 4
18
#540000
08
#550000
b0000000000000000000000000000000000000000000000000001010000000000 #
b010111 (
b0000000000000000000000000000000000000000000000000010100000000000 0
b010110 4
18
#560000
08
#570000
b0000000000000000000000000000000000000000000000000000101000000000 #
b011000 (
b0000000000000000000000000000000000000000000000000001010000000000 0
b010111 4
18
#580000
08
#590000
b0000000000000000000000000000000000000000000000000000010100000000 #
b011001 (
b0000000000000000000000000000000000000000000000000000101000000000 0
b011000 4
18
#600000
08
#610000
b0000000000000000000000000000000000000000000000000000001010000000 #
b011010 (
b0000000000000000000000000000000000000000000000000000010100000000 0
b011001 4
18
#620000
08
#630000
b0000000000000000000000000000000000000000000000000000000101000000 #
b011011 (
b0000000000000000000000000000000000000000000000000000001010000000 0
b011010 4
18
#640000
08
#650000
b0000000000000000000000000000000000000000000000000000000010100000 #
b011100 (
b0000000000000000000000000000000000000000000000000000000101000000 0
b011011 4
18
#660000
08
#670000
b0000000000000000000000000000000000000000000000000000000001010000 #
b011101 (
b0000000000000000000000000000000000000000000000000000000010100000 0
b011100 4
18
#680000
08
#690000
b0000000000000000000000000000000000000000000000000000000000101000 #
b0000000000000000000000000000000000000000000000000000000000010100 %
b00000000000000000000000000000001 '
b011110 (
b0000000000000000000000000000000000000000000000000000000001010000 0
b011101 4
18
#700000
08
#710000
b0000000000000000000000000000000000000000000000000000000000010100 #
b00000000000000000000000000000010 '
b011111 (
b00000000000000000000000000000001 ,
b00000000000000000000000000010100 -
b0000000000000000000000000000000000000000000000000000000000101000 0
b0000000000000000000000000000000000000000000000000000000000010100 2
b011110 4
18
#720000
08
#730000
b0000000000000000000000000000000000000000000000000000000000001010 #
b0000000000000000000000000000000000000000000000000000000000000000 %
b00000000000000000000000000000101 '
b100000 (
b00000000000000000000000000000010 ,
b0000000000000000000000000000000000000000000000000000000000010100 0
b011111 4
18
#740000
08
#750000
b0000000000000000000000000000000000000000000000000000000000000101 #
b00000000000000000000000000001010 '
b100001 (
1)
b00000000000000000000000000000101 ,
b00000000000000000000000000000000 -
b0000000000000000000000000000000000000000000000000000000000001010 0
b0000000000000000000000000000000000000000000000000000000000000000 2
b100000 4
18
#760000
08
#770000
b0000000000000000000000000000000000000000000000000000000000000000 #
b00000000000000000000000000000000 '
b000000 (
1+
b00000000000000000000000000001010 ,
0/
b0000000000000000000000000000000000000000000000000000000000000101 0
b100001 4
18
#780000
08
#790000
b00000000000000000000000000000000 ,
b0000000000000000000000000000000000000000000000000000000000000000 0
b000000 4
18
#800000
08
#810000
b00000000000000000000001111100111 5
18
#820000
08
#830000
b00000000000000000000000000000001 6
18
#840000
08
#850000
b00000000000000000000001111100111 '
0+
b00000000000000000000001111100111 -
1/
b0000000000000000000000000000000100000000000000000000000000000000 0
b0000000000000000000000000000000000000000000000000000001111100111 2
17
18
#860000
08
#870000
b00000000000000000000000000000000 '
1+
b00000000000000000000001111100111 ,
b00000000000000000000000000000000 -
0/
b0000000000000000000000000000000000000000000000000000000000000000 0
b0000000000000000000000000000000000000000000000000000000000000000 2
07
18
#880000
08
#890000
b00000000000000000000000000000000 ,
18
#900000
08
#910000
18
#920000
08
#930000
b00000000000000000000000000001001 6
18
#940000
08
#950000
b0000000000000000000000000000010010000000000000000000000000000000 #
b0000000000000000000000000000000000000000000000000000001111100111 %
b000001 (
0)
0+
b00000000000000000000001111100111 -
1/
b0000000000000000000000000000100100000000000000000000000000000000 0
b0000000000000000000000000000000000000000000000000000001111100111 2
17
18
#960000
08
#970000
b0000000000000000000000000000001001000000000000000000000000000000 #
b000010 (
b0000000000000000000000000000010010000000000000000000000000000000 0
b000001 4
07
18
#980000
08
#990000
b0000000000000000000000000000000100100000000000000000000000000000 #
b000011 (
b0000000000000000000000000000001001000000000000000000000000000000 0
b000010 4
18
#1000000
08
#1010000
b0000000000000000000000000000000010010000000000000000000000000000 #
b000100 (
b0000000000000000000000000000000100100000000000000000000000000000 0
b000011 4
18
#1020000
08
#1030000
b0000000000000000000000000000000001001000000000000000000000000000 #
b000101 (
b0000000000000000000000000000000010010000000000000000000000000000 0
b000100 4
18
#1040000
08
#1050000
b0000000000000000000000000000000000100100000000000000000000000000 #
b000110 (
b0000000000000000000000000000000001001000000000000000000000000000 0
b000101 4
18
#1060000
08
#1070000
b0000000000000000000000000000000000010010000000000000000000000000 #
b000111 (
b0000000000000000000000000000000000100100000000000000000000000000 0
b000110 4
18
#1080000
08
#1090000
b0000000000000000000000000000000000001001000000000000000000000000 #
b001000 (
b0000000000000000000000000000000000010010000000000000000000000000 0
b000111 4
18
#1100000
08
#1110000
b0000000000000000000000000000000000000100100000000000000000000000 #
b001001 (
b0000000000000000000000000000000000001001000000000000000000000000 0
b001000 4
18
#1120000
08
#1130000
b0000000000000000000000000000000000000010010000000000000000000000 #
b001010 (
b0000000000000000000000000000000000000100100000000000000000000000 0
b001001 4
18
#1140000
08
#1150000
b0000000000000000000000000000000000000001001000000000000000000000 #
b001011 (
b0000000000000000000000000000000000000010010000000000000000000000 0
b001010 4
18
#1160000
08
#1170000
b0000000000000000000000000000000000000000100100000000000000000000 #
b001100 (
b0000000000000000000000000000000000000001001000000000000000000000 0
b001011 4
18
#1180000
08
#1190000
b0000000000000000000000000000000000000000010010000000000000000000 #
b001101 (
b0000000000000000000000000000000000000000100100000000000000000000 0
b001100 4
18
#1200000
08
#1210000
b0000000000000000000000000000000000000000001001000000000000000000 #
b001110 (
b0000000000000000000000000000000000000000010010000000000000000000 0
b001101 4
18
#1220000
08
#1230000
b0000000000000000000000000000000000000000000100100000000000000000 #
b001111 (
b0000000000000000000000000000000000000000001001000000000000000000 0
b001110 4
18
#1240000
08
#1250000
b0000000000000000000000000000000000000000000010010000000000000000 #
b010000 (
b0000000000000000000000000000000000000000000100100000000000000000 0
b001111 4
18
#1260000
08
#1270000
b0000000000000000000000000000000000000000000001001000000000000000 #
b010001 (
b0000000000000000000000000000000000000000000010010000000000000000 0
b010000 4
18
#1280000
08
#1290000
b0000000000000000000000000000000000000000000000100100000000000000 #
b010010 (
b0000000000000000000000000000000000000000000001001000000000000000 0
b010001 4
18
#1300000
08
#1310000
b0000000000000000000000000000000000000000000000010010000000000000 #
b010011 (
b0000000000000000000000000000000000000000000000100100000000000000 0
b010010 4
18
#1320000
08
#1330000
b0000000000000000000000000000000000000000000000001001000000000000 #
b010100 (
b0000000000000000000000000000000000000000000000010010000000000000 0
b010011 4
18
#1340000
08
#1350000
b0000000000000000000000000000000000000000000000000100100000000000 #
b010101 (
b0000000000000000000000000000000000000000000000001001000000000000 0
b010100 4
18
#1360000
08
#1370000
b0000000000000000000000000000000000000000000000000010010000000000 #
b010110 (
b0000000000000000000000000000000000000000000000000100100000000000 0
b010101 4
18
#1380000
08
#1390000
b0000000000000000000000000000000000000000000000000001001000000000 #
b010111 (
b0000000000000000000000000000000000000000000000000010010000000000 0
b010110 4
18
#1400000
08
#1410000
b0000000000000000000000000000000000000000000000000000100100000000 #
b011000 (
b0000000000000000000000000000000000000000000000000001001000000000 0
b010111 4
18
#1420000
08
#1430000
b0000000000000000000000000000000000000000000000000000010010000000 #
b011001 (
b0000000000000000000000000000000000000000000000000000100100000000 0
b011000 4
18
#1440000
08
#1450000
b0000000000000000000000000000000000000000000000000000001001000000 #
b011010 (
b0000000000000000000000000000000000000000000000000000010010000000 0
b011001 4
18
#1460000
08
#1470000
b0000000000000000000000000000000000000000000000000000000100100000 #
b0000000000000000000000000000000000000000000000000000000110100111 %
b00000000000000000000000000000001 '
b011011 (
b0000000000000000000000000000000000000000000000000000001001000000 0
b011010 4
18
#1480000
08
#1490000
b0000000000000000000000000000000000000000000000000000000010010000 #
b0000000000000000000000000000000000000000000000000000000010000111 %
b00000000000000000000000000000011 '
b011100 (
b00000000000000000000000000000001 ,
b00000000000000000000000110100111 -
b0000000000000000000000000000000000000000000000000000000100100000 0
b0000000000000000000000000000000000000000000000000000000110100111 2
b011011 4
18
#1500000
08
#1510000
b0000000000000000000000000000000000000000000000000000000001001000 #
b00000000000000000000000000000110 '
b011101 (
b00000000000000000000000000000011 ,
b00000000000000000000000010000111 -
b0000000000000000000000000000000000000000000000000000000010010000 0
b0000000000000000000000000000000000000000000000000000000010000111 2
b011100 4
18
#1520000
08
#1530000
b0000000000000000000000000000000000000000000000000000000000100100 #
b0000000000000000000000000000000000000000000000000000000000111111 %
b00000000000000000000000000001101 '
b011110 (
b00000000000000000000000000000110 ,
b0000000000000000000000000000000000000000000000000000000001001000 0
b011101 4
18
#1540000
08
#1550000
b0000000000000000000000000000000000000000000000000000000000010010 #
b0000000000000000000000000000000000000000000000000000000000011011 %
b00000000000000000000000000011011 '
b011111 (
b00000000000000000000000000001101 ,
b00000000000000000000000000111111 -
b0000000000000000000000000000000000000000000000000000000000100100 0
b0000000000000000000000000000000000000000000000000000000000111111 2
b011110 4
18
#1560000
08
#1570000
b0000000000000000000000000000000000000000000000000000000000001001 #
b0000000000000000000000000000000000000000000000000000000000001001 %
b00000000000000000000000000110111 '
b100000 (
b00000000000000000000000000011011 ,
b00000000000000000000000000011011 -
b0000000000000000000000000000000000000000000000000000000000010010 0
b0000000000000000000000000000000000000000000000000000000000011011 2
b011111 4
18
#1580000
08
#1590000
b0000000000000000000000000000000000000000000000000000000000000100 #
b0000000000000000000000000000000000000000000000000000000000000000 %
b00000000000000000000000001101111 '
b100001 (
1)
b00000000000000000000000000110111 ,
b00000000000000000000000000001001 -
b0000000000000000000000000000000000000000000000000000000000001001 0
b0000000000000000000000000000000000000000000000000000000000001001 2
b100000 4
18
#1600000
08
#1610000
b0000000000000000000000000000000000000000000000000000000000000000 #
b00000000000000000000000000000000 '
b000000 (
1+
b00000000000000000000000001101111 ,
b00000000000000000000000000000000 -
0/
b0000000000000000000000000000000000000000000000000000000000000100 0
b0000000000000000000000000000000000000000000000000000000000000000 2
b100001 4
18
#1620000
08
#1630000
b00000000000000000000000000000000 ,
b0000000000000000000000000000000000000000000000000000000000000000 0
b000000 4
18
#1640000
08
#1650000
b00000000000000000000000001100100 5
18
#1660000
08
#1670000
b00000000000000000000000000001010 6
18
#1680000
08
#1690000
b0000000000000000000000000000010100000000000000000000000000000000 #
b0000000000000000000000000000000000000000000000000000000001100100 %
b000001 (
0)
0+
b00000000000000000000000001100100 -
1/
b0000000000000000000000000000101000000000000000000000000000000000 0
b0000000000000000000000000000000000000000000000000000000001100100 2
17
18
#1700000
08
#1710000
b0000000000000000000000000000001010000000000000000000000000000000 #
b000010 (
b0000000000000000000000000000010100000000000000000000000000000000 0
b000001 4
07
18
#1720000
08
#1730000
b0000000000000000000000000000000101000000000000000000000000000000 #
b000011 (
b0000000000000000000000000000001010000000000000000000000000000000 0
b000010 4
18
#1740000
08
#1750000
b0000000000000000000000000000000010100000000000000000000000000000 #
b000100 (
b0000000000000000000000000000000101000000000000000000000000000000 0
b000011 4
18
#1760000
08
#1770000
b0000000000000000000000000000000001010000000000000000000000000000 #
b000101 (
b0000000000000000000000000000000010100000000000000000000000000000 0
b000100 4
18
#1780000
08
#1790000
b0000000000000000000000000000000000101000000000000000000000000000 #
b000110 (
b0000000000000000000000000000000001010000000000000000000000000000 0
b000101 4
18
#1800000
08
#1810000
b0000000000000000000000000000000000010100000000000000000000000000 #
b000111 (
b0000000000000000000000000000000000101000000000000000000000000000 0
b000110 4
18
#1820000
08
#1830000
b0000000000000000000000000000000000001010000000000000000000000000 #
b001000 (
b0000000000000000000000000000000000010100000000000000000000000000 0
b000111 4
18
#1840000
08
#1850000
b0000000000000000000000000000000000000101000000000000000000000000 #
b001001 (
b0000000000000000000000000000000000001010000000000000000000000000 0
b001000 4
18
#1860000
08
#1870000
b0000000000000000000000000000000000000010100000000000000000000000 #
b001010 (
b0000000000000000000000000000000000000101000000000000000000000000 0
b001001 4
18
#1880000
08
#1890000
b0000000000000000000000000000000000000001010000000000000000000000 #
b001011 (
b0000000000000000000000000000000000000010100000000000000000000000 0
b001010 4
18
#1900000
08
#1910000
b0000000000000000000000000000000000000000101000000000000000000000 #
b001100 (
b0000000000000000000000000000000000000001010000000000000000000000 0
b001011 4
18
#1920000
08
#1930000
b0000000000000000000000000000000000000000010100000000000000000000 #
b001101 (
b0000000000000000000000000000000000000000101000000000000000000000 0
b001100 4
18
#1940000
08
#1950000
b0000000000000000000000000000000000000000001010000000000000000000 #
b001110 (
b0000000000000000000000000000000000000000010100000000000000000000 0
b001101 4
18
#1960000
08
#1970000
b0000000000000000000000000000000000000000000101000000000000000000 #
b001111 (
b0000000000000000000000000000000000000000001010000000000000000000 0
b001110 4
18
#1980000
08
#1990000
b0000000000000000000000000000000000000000000010100000000000000000 #
b010000 (
b0000000000000000000000000000000000000000000101000000000000000000 0
b001111 4
18
#2000000
08
#2010000
b0000000000000000000000000000000000000000000001010000000000000000 #
b010001 (
b0000000000000000000000000000000000000000000010100000000000000000 0
b010000 4
18
#2020000
08
#2030000
b0000000000000000000000000000000000000000000000101000000000000000 #
b010010 (
b0000000000000000000000000000000000000000000001010000000000000000 0
b010001 4
18
#2040000
08
#2050000
b0000000000000000000000000000000000000000000000010100000000000000 #
b010011 (
b0000000000000000000000000000000000000000000000101000000000000000 0
b010010 4
18
#2060000
08
#2070000
b0000000000000000000000000000000000000000000000001010000000000000 #
b010100 (
b0000000000000000000000000000000000000000000000010100000000000000 0
b010011 4
18
#2080000
08
#2090000
b0000000000000000000000000000000000000000000000000101000000000000 #
b010101 (
b0000000000000000000000000000000000000000000000001010000000000000 0
b010100 4
18
#2100000
08
#2110000
b0000000000000000000000000000000000000000000000000010100000000000 #
b010110 (
b0000000000000000000000000000000000000000000000000101000000000000 0
b010101 4
18
#2120000
08
#2130000
b0000000000000000000000000000000000000000000000000001010000000000 #
b010111 (
b0000000000000000000000000000000000000000000000000010100000000000 0
b010110 4
18
#2140000
08
#2150000
b0000000000000000000000000000000000000000000000000000101000000000 #
b011000 (
b0000000000000000000000000000000000000000000000000001010000000000 0
b010111 4
18
#2160000
08
#2170000
b0000000000000000000000000000000000000000000000000000010100000000 #
b011001 (
b0000000000000000000000000000000000000000000000000000101000000000 0
b011000 4
18
#2180000
08
#2190000
b0000000000000000000000000000000000000000000000000000001010000000 #
b011010 (
b0000000000000000000000000000000000000000000000000000010100000000 0
b011001 4
18
#2200000
08
#2210000
b0000000000000000000000000000000000000000000000000000000101000000 #
b011011 (
b0000000000000000000000000000000000000000000000000000001010000000 0
b011010 4
18
#2220000
08
#2230000
b0000000000000000000000000000000000000000000000000000000010100000 #
b011100 (
b0000000000000000000000000000000000000000000000000000000101000000 0
b011011 4
18
#2240000
08
#2250000
b0000000000000000000000000000000000000000000000000000000001010000 #
b011101 (
b0000000000000000000000000000000000000000000000000000000010100000 0
b011100 4
18
#2260000
08
#2270000
b0000000000000000000000000000000000000000000000000000000000101000 #
b0000000000000000000000000000000000000000000000000000000000010100 %
b00000000000000000000000000000001 '
b011110 (
b0000000000000000000000000000000000000000000000000000000001010000 0
b011101 4
18
#2280000
08
#2290000
b0000000000000000000000000000000000000000000000000000000000010100 #
b00000000000000000000000000000010 '
b011111 (
b00000000000000000000000000000001 ,
b00000000000000000000000000010100 -
b0000000000000000000000000000000000000000000000000000000000101000 0
b0000000000000000000000000000000000000000000000000000000000010100 2
b011110 4
18
#2300000
08
#2310000
b0000000000000000000000000000000000000000000000000000000000001010 #
b0000000000000000000000000000000000000000000000000000000000000000 %
b00000000000000000000000000000101 '
b100000 (
b00000000000000000000000000000010 ,
b0000000000000000000000000000000000000000000000000000000000010100 0
b011111 4
18
#2320000
08
#2330000
b0000000000000000000000000000000000000000000000000000000000000101 #
b00000000000000000000000000001010 '
b100001 (
1)
b00000000000000000000000000000101 ,
b00000000000000000000000000000000 -
b0000000000000000000000000000000000000000000000000000000000001010 0
b0000000000000000000000000000000000000000000000000000000000000000 2
b100000 4
18
#2340000
08
#2350000
b0000000000000000000000000000000000000000000000000000000000000000 #
b00000000000000000000000000000000 '
b000000 (
1+
b00000000000000000000000000001010 ,
0/
b0000000000000000000000000000000000000000000000000000000000000101 0
b100001 4
18
#2360000
08
#2370000
b00000000000000000000000000000000 ,
b0000000000000000000000000000000000000000000000000000000000000000 0
b000000 4
18
#2380000
08
#2390000
b00000000000011110100001001000000 5
18
#2400000
08
#2410000
18
#2420000
08
#2430000
b0000000000000000000000000000010100000000000000000000000000000000 #
b0000000000000000000000000000000000000000000011110100001001000000 %
b000001 (
0)
0+
b00000000000011110100001001000000 -
1/
b0000000000000000000000000000101000000000000000000000000000000000 0
b0000000000000000000000000000000000000000000011110100001001000000 2
17
18
#2440000
08
#2450000
b0000000000000000000000000000001010000000000000000000000000000000 #
b000010 (
b0000000000000000000000000000010100000000000000000000000000000000 0
b000001 4
07
18
#2460000
08
#2470000
b0000000000000000000000000000000101000000000000000000000000000000 #
b000011 (
b0000000000000000000000000000001010000000000000000000000000000000 0
b000010 4
18
#2480000
08
#2490000
b0000000000000000000000000000000010100000000000000000000000000000 #
b000100 (
b0000000000000000000000000000000101000000000000000000000000000000 0
b000011 4
18
#2500000
08
#2510000
b0000000000000000000000000000000001010000000000000000000000000000 #
b000101 (
b0000000000000000000000000000000010100000000000000000000000000000 0
b000100 4
18
#2520000
08
#2530000
b0000000000000000000000000000000000101000000000000000000000000000 #
b000110 (
b0000000000000000000000000000000001010000000000000000000000000000 0
b000101 4
18
#2540000
08
#2550000
b0000000000000000000000000000000000010100000000000000000000000000 #
b000111 (
b0000000000000000000000000000000000101000000000000000000000000000 0
b000110 4
18
#2560000
08
#2570000
b0000000000000000000000000000000000001010000000000000000000000000 #
b001000 (
b0000000000000000000000000000000000010100000000000000000000000000 0
b000111 4
18
#2580000
08
#2590000
b0000000000000000000000000000000000000101000000000000000000000000 #
b001001 (
b0000000000000000000000000000000000001010000000000000000000000000 0
b001000 4
18
#2600000
08
#2610000
b0000000000000000000000000000000000000010100000000000000000000000 #
b001010 (
b0000000000000000000000000000000000000101000000000000000000000000 0
b001001 4
18
#2620000
08
#2630000
b0000000000000000000000000000000000000001010000000000000000000000 #
b001011 (
b0000000000000000000000000000000000000010100000000000000000000000 0
b001010 4
18
#2640000
08
#2650000
b0000000000000000000000000000000000000000101000000000000000000000 #
b001100 (
b0000000000000000000000000000000000000001010000000000000000000000 0
b001011 4
18
#2660000
08
#2670000
b0000000000000000000000000000000000000000010100000000000000000000 #
b001101 (
b0000000000000000000000000000000000000000101000000000000000000000 0
b001100 4
18
#2680000
08
#2690000
b0000000000000000000000000000000000000000001010000000000000000000 #
b001110 (
b0000000000000000000000000000000000000000010100000000000000000000 0
b001101 4
18
#2700000
08
#2710000
b0000000000000000000000000000000000000000000101000000000000000000 #
b001111 (
b0000000000000000000000000000000000000000001010000000000000000000 0
b001110 4
18
#2720000
08
#2730000
b0000000000000000000000000000000000000000000010100000000000000000 #
b010000 (
b0000000000000000000000000000000000000000000101000000000000000000 0
b001111 4
18
#2740000
08
#2750000
b0000000000000000000000000000000000000000000001010000000000000000 #
b0000000000000000000000000000000000000000000001010100001001000000 %
b00000000000000000000000000000001 '
b010001 (
b0000000000000000000000000000000000000000000010100000000000000000 0
b010000 4
18
#2760000
08
#2770000
b0000000000000000000000000000000000000000000000101000000000000000 #
b0000000000000000000000000000000000000000000000000100001001000000 %
b00000000000000000000000000000011 '
b010010 (
b00000000000000000000000000000001 ,
b00000000000001010100001001000000 -
b0000000000000000000000000000000000000000000001010000000000000000 0
b0000000000000000000000000000000000000000000001010100001001000000 2
b010001 4
18
#2780000
08
#2790000
b0000000000000000000000000000000000000000000000010100000000000000 #
b00000000000000000000000000000110 '
b010011 (
b00000000000000000000000000000011 ,
b00000000000000000100001001000000 -
b0000000000000000000000000000000000000000000000101000000000000000 0
b0000000000000000000000000000000000000000000000000100001001000000 2
b010010 4
18
#2800000
08
#2810000
b0000000000000000000000000000000000000000000000001010000000000000 #
b00000000000000000000000000001100 '
b010100 (
b00000000000000000000000000000110 ,
b0000000000000000000000000000000000000000000000010100000000000000 0
b010011 4
18
#2820000
08
#2830000
b0000000000000000000000000000000000000000000000000101000000000000 #
b00000000000000000000000000011000 '
b010101 (
b00000000000000000000000000001100 ,
b0000000000000000000000000000000000000000000000001010000000000000 0
b010100 4
18
#2840000
08
#2850000
b0000000000000000000000000000000000000000000000000010100000000000 #
b00000000000000000000000000110000 '
b010110 (
b00000000000000000000000000011000 ,
b0000000000000000000000000000000000000000000000000101000000000000 0
b010101 4
18
#2860000
08
#2870000
b0000000000000000000000000000000000000000000000000001010000000000 #
b0000000000000000000000000000000000000000000000000001101001000000 %
b00000000000000000000000001100001 '
b010111 (
b00000000000000000000000000110000 ,
b0000000000000000000000000000000000000000000000000010100000000000 0
b010110 4
18
#2880000
08
#2890000
b0000000000000000000000000000000000000000000000000000101000000000 #
b0000000000000000000000000000000000000000000000000000011001000000 %
b00000000000000000000000011000011 '
b011000 (
b00000000000000000000000001100001 ,
b00000000000000000001101001000000 -
b0000000000000000000000000000000000000000000000000001010000000000 0
b0000000000000000000000000000000000000000000000000001101001000000 2
b010111 4
18
#2900000
08
#2910000
b0000000000000000000000000000000000000000000000000000010100000000 #
b00000000000000000000000110000110 '
b011001 (
b00000000000000000000000011000011 ,
b00000000000000000000011001000000 -
b0000000000000000000000000000000000000000000000000000101000000000 0
b0000000000000000000000000000000000000000000000000000011001000000 2
b011000 4
18
#2920000
08
#2930000
b0000000000000000000000000000000000000000000000000000001010000000 #
b0000000000000000000000000000000000000000000000000000000101000000 %
b00000000000000000000001100001101 '
b011010 (
b00000000000000000000000110000110 ,
b0000000000000000000000000000000000000000000000000000010100000000 0
b011001 4
18
#2940000
08
#2950000
b0000000000000000000000000000000000000000000000000000000101000000 #
b00000000000000000000011000011010 '
b011011 (
b00000000000000000000001100001101 ,
b00000000000000000000000101000000 -
b0000000000000000000000000000000000000000000000000000001010000000 0
b0000000000000000000000000000000000000000000000000000000101000000 2
b011010 4
18
#2960000
08
#2970000
b0000000000000000000000000000000000000000000000000000000010100000 #
b0000000000000000000000000000000000000000000000000000000000000000 %
b00000000000000000000110000110101 '
b011100 (
b00000000000000000000011000011010 ,
b0000000000000000000000000000000000000000000000000000000101000000 0
b011011 4
18
#2980000
08
#2990000
b0000000000000000000000000000000000000000000000000000000001010000 #
b00000000000000000001100001101010 '
b011101 (
b00000000000000000000110000110101 ,
b00000000000000000000000000000000 -
b0000000000000000000000000000000000000000000000000000000010100000 0
b0000000000000000000000000000000000000000000000000000000000000000 2
b011100 4
18
#3000000
08
#3010000
b0000000000000000000000000000000000000000000000000000000000101000 #
b00000000000000000011000011010100 '
b011110 (
b00000000000000000001100001101010 ,
b0000000000000000000000000000000000000000000000000000000001010000 0
b011101 4
18
#3020000
08
#3030000
b0000000000000000000000000000000000000000000000000000000000010100 #
b00000000000000000110000110101000 '
b011111 (
b00000000000000000011000011010100 ,
b0000000000000000000000000000000000000000000000000000000000101000 0
b011110 4
18
#3040000
08
#3050000
b0000000000000000000000000000000000000000000000000000000000001010 #
b00000000000000001100001101010000 '
b100000 (
b00000000000000000110000110101000 ,
b0000000000000000000000000000000000000000000000000000000000010100 0
b011111 4
18
#3060000
08
#3070000
b0000000000000000000000000000000000000000000000000000000000000101 #
b00000000000000011000011010100000 '
b100001 (
1)
b00000000000000001100001101010000 ,
b0000000000000000000000000000000000000000000000000000000000001010 0
b100000 4
18
#3080000
08
#3090000
b0000000000000000000000000000000000000000000000000000000000000000 #
b00000000000000000000000000000000 '
b000000 (
1+
b00000000000000011000011010100000 ,
0/
b0000000000000000000000000000000000000000000000000000000000000101 0
b100001 4
18
#3100000
08
#3110000
b00000000000000000000000000000000 ,
b0000000000000000000000000000000000000000000000000000000000000000 0
b000000 4
18
#3120000
08
#3130000
b00000000000000000000000000010101 5
18
#3140000
08
#3150000
b00000000000000000000000000000011 6
18
#3160000
08
